%YAML 1.1
%TAG !u! tag:unity3d.com,2011:
--- !u!1001 &100100000
Prefab:
  m_ObjectHideFlags: 1
  serializedVersion: 2
  m_Modification:
    m_TransformParent: {fileID: 0}
    m_Modifications: []
    m_RemovedComponents: []
  m_SourcePrefab: {fileID: 0}
  m_RootGameObject: {fileID: 1111321145023398}
  m_IsPrefabAsset: 1
--- !u!1 &1111321145023398
GameObject:
  m_ObjectHideFlags: 0
  m_CorrespondingSourceObject: {fileID: 0}
  m_PrefabInternal: {fileID: 100100000}
  serializedVersion: 6
  m_Component:
  - component: {fileID: 224966318715337960}
  - component: {fileID: 212769567068417728}
  - component: {fileID: 114893193509187662}
  - component: {fileID: 114118872800141082}
  - component: {fileID: 114397307426861372}
  - component: {fileID: 222086268092044276}
  - component: {fileID: 114112606175718044}
  - component: {fileID: 60611562558897900}
  m_Layer: 0
  m_Name: first
  m_TagString: movemebt
  m_Icon: {fileID: 0}
  m_NavMeshLayer: 0
  m_StaticEditorFlags: 0
  m_IsActive: 1
--- !u!60 &60611562558897900
PolygonCollider2D:
  m_ObjectHideFlags: 1
  m_CorrespondingSourceObject: {fileID: 0}
  m_PrefabInternal: {fileID: 100100000}
  m_GameObject: {fileID: 1111321145023398}
  m_Enabled: 1
  m_Density: 1
  m_Material: {fileID: 0}
  m_IsTrigger: 1
  m_UsedByEffector: 0
  m_UsedByComposite: 0
  m_Offset: {x: 0, y: 0}
  m_SpriteTilingProperty:
    border: {x: 0, y: 0, z: 0, w: 0}
    pivot: {x: 0.5, y: 0.5}
    oldSize: {x: 7.26, y: 10.8}
    newSize: {x: 13.26, y: 10.8}
    adaptiveTilingThreshold: 0.5
    drawMode: 0
    adaptiveTiling: 0
  m_AutoTiling: 0
  m_Points:
    m_Paths:
    - - {x: 3.4199998, y: -4.0299997}
      - {x: 3.35, y: -3.9099998}
      - {x: 3.35, y: -3.8}
      - {x: 3.25, y: -3.6299999}
      - {x: 3.25, y: -3.56}
      - {x: 3.1899998, y: -3.3999999}
      - {x: 3.1299999, y: -3.28}
      - {x: 3.12, y: -3.1599998}
      - {x: 3.05, y: -3.06}
      - {x: 3.03, y: -2.9299998}
      - {x: 2.96, y: -2.8}
      - {x: 2.95, y: -2.71}
      - {x: 2.87, y: -2.6}
      - {x: 2.87, y: -2.53}
      - {x: 2.85, y: -2.47}
      - {x: 2.8, y: -2.33}
      - {x: 2.76, y: -2.25}
      - {x: 2.73, y: -2.11}
      - {x: 2.6799998, y: -2.02}
      - {x: 2.6499999, y: -1.92}
      - {x: 2.53, y: -1.63}
      - {x: 2.51, y: -1.51}
      - {x: 2.45, y: -1.38}
      - {x: 2.3999999, y: -1.25}
      - {x: 2.33, y: -1.05}
      - {x: 2.23, y: -0.76}
      - {x: 2.19, y: -0.64}
      - {x: 2.12, y: -0.5}
      - {x: 2.11, y: -0.42}
      - {x: 2.08, y: -0.34}
      - {x: 2.01, y: -0.26999998}
      - {x: 2.02, y: -0.19}
      - {x: 1.9599999, y: -0.099999994}
      - {x: 1.9499999, y: -0.03}
      - {x: 1.9, y: 0.11}
      - {x: 1.8399999, y: 0.31}
      - {x: 1.79, y: 0.45999998}
      - {x: 1.73, y: 0.55}
      - {x: 1.68, y: 0.71999997}
      - {x: 1.61, y: 0.91999996}
      - {x: 1.55, y: 1.02}
      - {x: 1.51, y: 1.16}
      - {x: 1.48, y: 1.28}
      - {x: 1.42, y: 1.39}
      - {x: 1.38, y: 1.56}
      - {x: 1.3199999, y: 1.66}
      - {x: 1.23, y: 1.9}
      - {x: 1.23, y: 1.9699999}
      - {x: 1.17, y: 2.04}
      - {x: 1.12, y: 2.2}
      - {x: 1.0699999, y: 2.37}
      - {x: 0.96, y: 2.6299999}
      - {x: 0.87, y: 2.8799999}
      - {x: 0.83, y: 3.02}
      - {x: 0.75, y: 3.1999998}
      - {x: 0.64, y: 3.55}
      - {x: 0.56, y: 3.7099998}
      - {x: 0.39, y: 4.08}
      - {x: 0.31, y: 4.21}
      - {x: 0.19, y: 4.37}
      - {x: -0.13, y: 4.69}
      - {x: -0.21, y: 4.75}
      - {x: -0.29999998, y: 4.81}
      - {x: -0.45999998, y: 4.91}
      - {x: -0.65999997, y: 5}
      - {x: -0.79999995, y: 5.06}
      - {x: -1.02, y: 5.1099997}
      - {x: -1.18, y: 5.14}
      - {x: -1.35, y: 5.16}
      - {x: -1.5999999, y: 5.16}
      - {x: -1.78, y: 5.14}
      - {x: -1.89, y: 5.12}
      - {x: -2.02, y: 5.0899997}
      - {x: -2.29, y: 5}
      - {x: -2.3899999, y: 4.96}
      - {x: -2.6599998, y: 4.8199997}
      - {x: -2.8799999, y: 4.64}
      - {x: -3.12, y: 4.4}
      - {x: -3.1499999, y: 4.35}
      - {x: -3.3, y: 4.15}
      - {x: -3.4099998, y: 3.9299998}
      - {x: -3.47, y: 3.79}
      - {x: -3.55, y: 3.58}
      - {x: -3.57, y: 3.4399998}
      - {x: -3.57, y: 3.3899999}
      - {x: -3.6299999, y: 3.28}
      - {x: -3.6299999, y: 3.1599998}
      - {x: -3.61, y: 3.1599998}
      - {x: -3.61, y: 2.8899999}
      - {x: -3.6299999, y: 2.87}
      - {x: -3.6299999, y: 2.73}
      - {x: -3.58, y: 2.6699998}
      - {x: -3.56, y: 2.54}
      - {x: -3.54, y: 2.4199998}
      - {x: -3.47, y: 2.24}
      - {x: -3.4099998, y: 2.1}
      - {x: -3.36, y: 2.01}
      - {x: -3.32, y: 1.93}
      - {x: -3.26, y: 1.8399999}
      - {x: -3.1699998, y: 1.7099999}
      - {x: -3.06, y: 1.5799999}
      - {x: -2.9299998, y: 1.41}
      - {x: -2.83, y: 1.29}
      - {x: -2.58, y: 0.97999996}
      - {x: -2.35, y: 0.7}
      - {x: -2.22, y: 0.55}
      - {x: -2.04, y: 0.32999998}
      - {x: -1.9399999, y: 0.19}
      - {x: -1.68, y: -0.14}
      - {x: -1.36, y: -0.53}
      - {x: -1.28, y: -0.62}
      - {x: -1.1899999, y: -0.74}
      - {x: -0.98999995, y: -0.95}
      - {x: -0.88, y: -1.09}
      - {x: -0.79999995, y: -1.2099999}
      - {x: -0.72999996, y: -1.3}
      - {x: -0.55, y: -1.52}
      - {x: -0.39999998, y: -1.6999999}
      - {x: -0.22, y: -1.92}
      - {x: 0.03, y: -2.23}
      - {x: 0.34, y: -2.62}
      - {x: 0.53999996, y: -2.84}
      - {x: 0.71999997, y: -3.02}
      - {x: 0.71, y: -3.04}
      - {x: 0.78, y: -3.1499999}
      - {x: 0.93, y: -3.33}
      - {x: 1.06, y: -3.48}
      - {x: 1.4, y: -3.8999999}
      - {x: 1.73, y: -4.2999997}
      - {x: 1.8, y: -4.39}
      - {x: 2.1599998, y: -4.83}
      - {x: 2.22, y: -4.88}
      - {x: 3.48, y: -4.88}
      - {x: 3.5, y: -4.8599997}
      - {x: 3.5, y: -4.22}
      - {x: 3.4299998, y: -4.11}
--- !u!114 &114112606175718044
MonoBehaviour:
  m_ObjectHideFlags: 1
  m_CorrespondingSourceObject: {fileID: 0}
  m_PrefabInternal: {fileID: 100100000}
  m_GameObject: {fileID: 1111321145023398}
  m_Enabled: 1
  m_EditorHideFlags: 0
  m_Script: {fileID: 708705254, guid: f70555f144d8491a825f0804e09c671c, type: 3}
  m_Name: 
  m_EditorClassIdentifier: 
  m_Material: {fileID: 0}
  m_Color: {r: 1, g: 1, b: 1, a: 1}
  m_RaycastTarget: 1
  m_OnCullStateChanged:
    m_PersistentCalls:
      m_Calls: []
    m_TypeName: UnityEngine.UI.MaskableGraphic+CullStateChangedEvent, UnityEngine.UI,
      Version=1.0.0.0, Culture=neutral, PublicKeyToken=null
  m_FontData:
    m_Font: {fileID: 10102, guid: 0000000000000000e000000000000000, type: 0}
    m_FontSize: 14
    m_FontStyle: 0
    m_BestFit: 0
    m_MinSize: 10
    m_MaxSize: 40
    m_Alignment: 0
    m_AlignByGeometry: 0
    m_RichText: 1
    m_HorizontalOverflow: 0
    m_VerticalOverflow: 0
    m_LineSpacing: 1
  m_Text: 
--- !u!114 &114118872800141082
MonoBehaviour:
  m_ObjectHideFlags: 1
  m_CorrespondingSourceObject: {fileID: 0}
  m_PrefabInternal: {fileID: 100100000}
  m_GameObject: {fileID: 1111321145023398}
  m_Enabled: 1
  m_EditorHideFlags: 0
  m_Script: {fileID: 11500000, guid: b5d848ccade2b5e4e9c9b14fa335347d, type: 3}
  m_Name: 
  m_EditorClassIdentifier: 
  rudio: {fileID: 82233135435270240, guid: 4d34839dc9d69c644b3c080aad40631d, type: 2}
--- !u!114 &114397307426861372
MonoBehaviour:
  m_ObjectHideFlags: 1
  m_CorrespondingSourceObject: {fileID: 0}
  m_PrefabInternal: {fileID: 100100000}
  m_GameObject: {fileID: 1111321145023398}
  m_Enabled: 1
  m_EditorHideFlags: 0
  m_Script: {fileID: 11500000, guid: a84e108053bf8284d9a59ba60973a854, type: 3}
  m_Name: 
  m_EditorClassIdentifier: 
--- !u!114 &114893193509187662
MonoBehaviour:
  m_ObjectHideFlags: 1
  m_CorrespondingSourceObject: {fileID: 0}
  m_PrefabInternal: {fileID: 100100000}
  m_GameObject: {fileID: 1111321145023398}
  m_Enabled: 1
  m_EditorHideFlags: 0
  m_Script: {fileID: 11500000, guid: e3fa3f6cac4084b489195a6f37e8f6cb, type: 3}
  m_Name: 
  m_EditorClassIdentifier: 
  objectName: first
  savepo: {fileID: 0}
  file: {fileID: 0}
  gt: 0
  i: 0
  g: 
  ggt: 0
--- !u!212 &212769567068417728
SpriteRenderer:
  m_ObjectHideFlags: 1
  m_CorrespondingSourceObject: {fileID: 0}
  m_PrefabInternal: {fileID: 100100000}
  m_GameObject: {fileID: 1111321145023398}
  m_Enabled: 1
  m_CastShadows: 0
  m_ReceiveShadows: 0
  m_DynamicOccludee: 1
  m_MotionVectors: 1
  m_LightProbeUsage: 1
  m_ReflectionProbeUsage: 1
  m_RenderingLayerMask: 4294967295
  m_Materials:
  - {fileID: 10754, guid: 0000000000000000f000000000000000, type: 0}
  m_StaticBatchInfo:
    firstSubMesh: 0
    subMeshCount: 0
  m_StaticBatchRoot: {fileID: 0}
  m_ProbeAnchor: {fileID: 0}
  m_LightProbeVolumeOverride: {fileID: 0}
  m_ScaleInLightmap: 1
  m_PreserveUVs: 0
  m_IgnoreNormalsForChartDetection: 0
  m_ImportantGI: 0
  m_StitchLightmapSeams: 0
  m_SelectedEditorRenderState: 0
  m_MinimumChartSize: 4
  m_AutoUVMaxDistance: 0.5
  m_AutoUVMaxAngle: 89
  m_LightmapParameters: {fileID: 0}
  m_SortingLayerID: 0
  m_SortingLayer: 0
  m_SortingOrder: 3
  m_Sprite: {fileID: 21300000, guid: ac158284762c39f48957a43d2e6dd05a, type: 3}
  m_Color: {r: 1, g: 1, b: 1, a: 1}
  m_FlipX: 0
  m_FlipY: 0
  m_DrawMode: 0
  m_Size: {x: 13.26, y: 10.8}
  m_AdaptiveModeThreshold: 0.5
  m_SpriteTileMode: 0
  m_WasSpriteAssigned: 1
  m_MaskInteraction: 0
  m_SpriteSortPoint: 0
--- !u!222 &222086268092044276
CanvasRenderer:
  m_ObjectHideFlags: 1
  m_CorrespondingSourceObject: {fileID: 0}
  m_PrefabInternal: {fileID: 100100000}
  m_GameObject: {fileID: 1111321145023398}
  m_CullTransparentMesh: 0
--- !u!224 &224966318715337960
RectTransform:
  m_ObjectHideFlags: 1
  m_CorrespondingSourceObject: {fileID: 0}
  m_PrefabInternal: {fileID: 100100000}
  m_GameObject: {fileID: 1111321145023398}
  m_LocalRotation: {x: 0, y: 0, z: 0, w: 1}
  m_LocalPosition: {x: 0, y: 0, z: 0}
  m_LocalScale: {x: 30, y: 30, z: 1}
  m_Children: []
  m_Father: {fileID: 0}
  m_RootOrder: 0
  m_LocalEulerAnglesHint: {x: 0, y: 0, z: 0}
  m_AnchorMin: {x: 0.5, y: 0.5}
  m_AnchorMax: {x: 0.5, y: 0.5}
  m_AnchoredPosition: {x: 582.0226, y: -8.170876}
  m_SizeDelta: {x: 13.26, y: 10.8}
  m_Pivot: {x: 0.5, y: 0.5}
